                                                     ..
   :~"""88hx.                                  x .d88"
 .~      ?888x      x.    .        x.    .      5888R
 X       '8888k   .@88k  z88u    .@88k  z88u    '888R
   H8h    8888X  ~"8888 ^8888   ~"8888 ^8888     888R
  ?888~   8888     8888  888R     8888  888R     888R
   %X   .X8*"      8888  888R     8888  888R     888R
   .-"``"tnx.      8888  888R     8888  888R     888R
  :~      8888.    8888 ,888B .   8888 ,888B .   888R
  ~       X8888   "8888Y 8888"   "8888Y 8888"   .888B .
 ...      '8888L   `Y"   'YP      `Y"   'YP     ^*888%
'888k     '8888f                                  "%
 8888>    <8888
 `888>    X888~
  '"88...x8""